{"collision_box":{"max_x":0.8999999761581421,"max_y":0.800000011920929,"min_x":0.0,"min_y":0.0},"collision_type":"COLLIDE","color":{"blue":255,"green":255,"red":255},"direction":"DOWN","entity_draw_priority":"RELATIVE","entity_size":{"max_x":1.1799999475479126,"max_y":2.200000047683716,"min_x":-0.18000000715255737,"min_y":0.0},"name":"soldier_1","opacity":1.0,"position":{"x_pos":15.886001586914062,"y_pos":32.635009765625},"script":"null","type":"french_warrior"}
{"collision_box":{"max_x":0.8999999761581421,"max_y":0.800000011920929,"min_x":0.0,"min_y":0.0},"collision_type":"COLLIDE","color":{"blue":255,"green":255,"red":255},"direction":"DOWN","entity_draw_priority":"RELATIVE","entity_size":{"max_x":1.1799999475479126,"max_y":2.200000047683716,"min_x":-0.18000000715255737,"min_y":0.0},"name":"soldier_3","opacity":1.0,"position":{"x_pos":50.96791076660156,"y_pos":39.895938873291016},"script":"null","type":"french_warrior"}
{"collision_box":{"max_x":0.8999999761581421,"max_y":0.800000011920929,"min_x":0.0,"min_y":0.0},"collision_type":"COLLIDE","color":{"blue":255,"green":255,"red":255},"direction":"DOWN","entity_draw_priority":"RELATIVE","entity_size":{"max_x":1.1799999475479126,"max_y":2.200000047683716,"min_x":-0.18000000715255737,"min_y":0.0},"name":"soldier_2","opacity":1.0,"position":{"x_pos":52.99797058105469,"y_pos":54.86015319824219},"script":"null","type":"french_warrior"}
{"collision_box":{"max_x":0.8999999761581421,"max_y":0.800000011920929,"min_x":0.10000000149011612,"min_y":0.0},"collision_type":"COLLIDE","color":{"blue":255,"green":255,"red":255},"direction":"LEFT","entity_draw_priority":"RELATIVE","entity_size":{"max_x":1.1799999475479126,"max_y":2.200000047683716,"min_x":-0.18000000715255737,"min_y":0.0},"name":"french","opacity":1.0,"position":{"x_pos":57.37859344482422,"y_pos":54.95646667480469},"script":"null","type":"french_warrior"}
{"angular_velocity":0.0,"collision_box":{"max_x":0.5,"max_y":0.5,"min_x":-0.5,"min_y":-0.5},"collision_type":"PASS","color":{"blue":255,"green":255,"red":255},"entity_draw_priority":"ALWAYS_BOTTOM","entity_size":{"max_x":0.5,"max_y":0.7,"min_x":0.0,"min_y":0.0},"image":"gui\/diary\/paper.png","image_type":"IMAGE","name":"paper_11","opacity":1.0,"position":{"x_pos":76.45514678955078,"y_pos":27.997655868530273},"rotation":40.0,"script":"level3\/room4\/pick_up_page_11","type":"image"}
{"collision_box":{"max_x":0.8999999761581421,"max_y":0.800000011920929,"min_x":0.10000000149011612,"min_y":0.0},"collision_type":"COLLIDE","color":{"blue":255,"green":255,"red":255},"direction":"DOWN","entity_draw_priority":"RELATIVE","entity_size":{"max_x":1.1799999475479126,"max_y":2.200000047683716,"min_x":-0.18000000715255737,"min_y":0.0},"name":"hunter","opacity":1.0,"position":{"x_pos":74.83251190185547,"y_pos":4.145558834075928},"script":"null","type":"french_warrior"}
